/var/www/F/IMN103L-1/1/4/teszt2.cpp: In function ‘int main()’:
/var/www/F/IMN103L-1/1/4/teszt2.cpp:10:5: error: ‘my_tree’ was not declared in this scope
     my_tree<int> *tree = new my_tree<int>(1);
     ^~~~~~~
/var/www/F/IMN103L-1/1/4/teszt2.cpp:10:13: error: expected primary-expression before ‘int’
     my_tree<int> *tree = new my_tree<int>(1);
             ^~~
/var/www/F/IMN103L-1/1/4/teszt2.cpp:12:5: error: ‘tree’ was not declared in this scope
     tree->data() = 1000;
     ^~~~
/var/www/F/IMN103L-1/1/4/teszt2.cpp:16:12: error: type ‘<type error>’ argument given to ‘delete’, expected pointer
     delete tree;
            ^~~~