/var/www/F/IMN103L-1/1/4/teszt6.cpp: In function ‘int main()’:
/var/www/F/IMN103L-1/1/4/teszt6.cpp:10:5: error: ‘my_tree’ was not declared in this scope
     my_tree<int> *tree = new my_tree<int>(1,
     ^~~~~~~
/var/www/F/IMN103L-1/1/4/teszt6.cpp:10:13: error: expected primary-expression before ‘int’
     my_tree<int> *tree = new my_tree<int>(1,
             ^~~
/var/www/F/IMN103L-1/1/4/teszt6.cpp:20:18: error: expected primary-expression before ‘int’
     for (my_tree<int>::iterator it = tree->begin(); it != tree->end(); ++it)
                  ^~~
/var/www/F/IMN103L-1/1/4/teszt6.cpp:20:53: error: ‘it’ was not declared in this scope
     for (my_tree<int>::iterator it = tree->begin(); it != tree->end(); ++it)
                                                     ^~
/var/www/F/IMN103L-1/1/4/teszt6.cpp:20:59: error: ‘tree’ was not declared in this scope
     for (my_tree<int>::iterator it = tree->begin(); it != tree->end(); ++it)
                                                           ^~~~
/var/www/F/IMN103L-1/1/4/teszt6.cpp:24:12: error: ‘tree’ was not declared in this scope
     delete tree;
            ^~~~